Herold, Jill     1     2234 123 Main St.      Washington, DC   20019 F yoga facebook
Jackson, Stan    2     3748 12 Douglas Ave.   Baltimore, MD    30229 M sports movies
Jerry, Francis   3     6666 2345 6th Street   Woodbridge, VA   44040 M movies roadtrips
Joan, Wilson     4     1234 12 Georgia Ave.   Washington, DC   20019 F romance dining
Smith, Stanley   5     3456 56 D Street       Baltimore, MD    30229 M movies dining
Claire, Claude  6     2311 66 32nd Street    Woodbridge, VA   44040 F cooking facebook
